{
  /**
   * Fichier de conf de lancement de l'appli pour pm2, dans _private car spécifique à cette instance
   */
  "apps" : [
    {
      "name"             : "sesalab",
      "script"           : "source/index.js",
      "log_date_format"  : "YYYY-MM-DD HH:mm:ss ",
      "exec_mode"        : "cluster",
      "exec_interpreter" : "node",
      "node_args"        : [],
      "instances"        : "2",
      "watch"            : false,
      "pid_file"         : "../sesalab.pid",
      "merge_logs"       : true,
      "error_file"       : "/var/log/nodejs/sesalab.error.log",
      "out_file"         : "/var/log/nodejs/sesalab.node.log",
      "env": {
        "PORT"  : 3000
      },
      "env_dev" : {
        "NODE_ENV": "dev"
      },
      "env_prod" : {
        "NODE_ENV": "prod"
      }
    }
  ]
}
