<?xml version="1.0" encoding="UTF-8" standalone="no"?>
<svg
   xmlns:dc="http://purl.org/dc/elements/1.1/"
   xmlns:cc="http://creativecommons.org/ns#"
   xmlns:rdf="http://www.w3.org/1999/02/22-rdf-syntax-ns#"
   xmlns:svg="http://www.w3.org/2000/svg"
   xmlns="http://www.w3.org/2000/svg"
   xmlns:sodipodi="http://sodipodi.sourceforge.net/DTD/sodipodi-0.dtd"
   xmlns:inkscape="http://www.inkscape.org/namespaces/inkscape"
   version="1"
   viewBox="0 0 48 48"
   enable-background="new 0 0 48 48"
   id="svg2"
   inkscape:version="0.91 r13725"
   sodipodi:docname="add_people.svg">
  <metadata
     id="metadata26">
    <rdf:RDF>
      <cc:Work
         rdf:about="">
        <dc:format>image/svg+xml</dc:format>
        <dc:type
           rdf:resource="http://purl.org/dc/dcmitype/StillImage" />
      </cc:Work>
    </rdf:RDF>
  </metadata>
  <defs
     id="defs24" />
  <sodipodi:namedview
     pagecolor="#ffffff"
     bordercolor="#666666"
     borderopacity="1"
     objecttolerance="10"
     gridtolerance="10"
     guidetolerance="10"
     inkscape:pageopacity="0"
     inkscape:pageshadow="2"
     inkscape:window-width="1278"
     inkscape:window-height="717"
     id="namedview22"
     showgrid="false"
     inkscape:zoom="4.9166667"
     inkscape:cx="-0.23415903"
     inkscape:cy="23.921741"
     inkscape:window-x="0"
     inkscape:window-y="25"
     inkscape:window-maximized="0"
     inkscape:current-layer="svg2" />
  <ellipse
     cx="11.313154"
     cy="14.234053"
     id="circle4"
     style="fill:#ffa726"
     rx="5.4622498"
     ry="5.6385894" />
  <g
     id="g6"
     transform="matrix(1.0924499,0,0,1.1277179,-1.7962457,-9.4480224)"
     style="fill:#455a64">
    <path
       d="m 2,34.7 c 0,0 2.8,-6.3 10,-6.3 7.2,0 10,6.3 10,6.3 L 22,38 2,38 2,34.7 Z"
       id="path8"
       inkscape:connector-curvature="0" />
    <path
       d="m 46,34.7 c 0,0 -2.8,-6.3 -10,-6.3 -7.2,0 -10,6.3 -10,6.3 l 0,3.3 20,0 0,-3.3 z"
       id="path10"
       inkscape:connector-curvature="0" />
  </g>
  <ellipse
     cx="24.42255"
     cy="9.7231827"
     id="circle12"
     style="fill:#ffb74d"
     rx="6.5546994"
     ry="6.7663074" />
  <path
     d="m 37.531952,29.007156 c 0,0 -3.605085,-8.457884 -13.109399,-8.457884 -9.504314,0 -13.109399,8.457884 -13.109399,8.457884 l 0,4.3981 26.218798,0 0,-4.3981 z"
     id="path14"
     inkscape:connector-curvature="0"
     style="fill:#607d8b" />
  <ellipse
     cx="37.531948"
     cy="14.234053"
     id="circle16"
     style="fill:#ffa726"
     rx="5.4622498"
     ry="5.6385894" />
  <ellipse
     cx="11.313154"
     cy="14.234053"
     id="circle18"
     style="fill:#ffa726"
     rx="5.4622498"
     ry="5.6385894" />
  <ellipse
     cx="37.531948"
     cy="14.234053"
     id="circle20"
     style="fill:#ffa726"
     rx="5.4622498"
     ry="5.6385894" />
  <circle
     cx="24.594397"
     cy="37.261921"
     r="10.40678"
     id="circle6"
     style="fill:#43a047;stroke:#ffffff;stroke-opacity:1" />
  <g
     id="g8"
     transform="matrix(1.040678,0,0,1.040678,-14.951366,-2.283846)"
     style="fill:#ffffff">
    <rect
       x="36"
       y="32"
       width="4"
       height="12"
       id="rect10" />
    <rect
       x="32"
       y="36"
       width="12"
       height="4"
       id="rect12" />
  </g>
</svg>
