<?xml version="1.0" encoding="UTF-8" standalone="no"?>
<svg
   xmlns:dc="http://purl.org/dc/elements/1.1/"
   xmlns:cc="http://creativecommons.org/ns#"
   xmlns:rdf="http://www.w3.org/1999/02/22-rdf-syntax-ns#"
   xmlns:svg="http://www.w3.org/2000/svg"
   xmlns="http://www.w3.org/2000/svg"
   xmlns:sodipodi="http://sodipodi.sourceforge.net/DTD/sodipodi-0.dtd"
   xmlns:inkscape="http://www.inkscape.org/namespaces/inkscape"
   version="1"
   viewBox="0 0 48 48"
   enable-background="new 0 0 48 48"
   id="svg2"
   inkscape:version="0.91 r13725"
   sodipodi:docname="folder.svg">
  <metadata
     id="metadata12">
    <rdf:RDF>
      <cc:Work
         rdf:about="">
        <dc:format>image/svg+xml</dc:format>
        <dc:type
           rdf:resource="http://purl.org/dc/dcmitype/StillImage" />
      </cc:Work>
    </rdf:RDF>
  </metadata>
  <defs
     id="defs10" />
  <sodipodi:namedview
     pagecolor="#ffffff"
     bordercolor="#666666"
     borderopacity="1"
     objecttolerance="10"
     gridtolerance="10"
     guidetolerance="10"
     inkscape:pageopacity="0"
     inkscape:pageshadow="2"
     inkscape:window-width="1278"
     inkscape:window-height="717"
     id="namedview8"
     showgrid="false"
     inkscape:zoom="4.9166667"
     inkscape:cx="-20.847458"
     inkscape:cy="24"
     inkscape:window-x="0"
     inkscape:window-y="25"
     inkscape:window-maximized="0"
     inkscape:current-layer="svg2" />
  <path
     d="m 42.603389,10.861017 -20.928814,0 -4.650848,-4.6508476 -11.6271166,0 c -2.5579662,0 -4.65084754,2.0928812 -4.65084754,4.6508476 l 0,9.301694 46.50847414,0 0,-4.650846 c 0,-2.557966 -2.092882,-4.650848 -4.650848,-4.650848 z"
     id="path4"
     inkscape:connector-curvature="0"
     style="fill:#ad6c00;fill-opacity:1" />
  <path
     d="m 42.603389,10.861017 -37.2067786,0 c -2.5579662,0 -4.65084754,2.092882 -4.65084754,4.650848 l 0,23.254236 c 0,2.557966 2.09288134,4.650848 4.65084754,4.650848 l 37.2067786,0 c 2.557966,0 4.650848,-2.092882 4.650848,-4.650848 l 0,-23.254236 c 0,-2.557966 -2.092882,-4.650848 -4.650848,-4.650848 z"
     id="path6"
     inkscape:connector-curvature="0"
     style="fill:#ffa000;fill-opacity:1" />
</svg>
