<?xml version="1.0" encoding="UTF-8" standalone="no"?>
<svg
   xmlns:dc="http://purl.org/dc/elements/1.1/"
   xmlns:cc="http://creativecommons.org/ns#"
   xmlns:rdf="http://www.w3.org/1999/02/22-rdf-syntax-ns#"
   xmlns:svg="http://www.w3.org/2000/svg"
   xmlns="http://www.w3.org/2000/svg"
   xmlns:sodipodi="http://sodipodi.sourceforge.net/DTD/sodipodi-0.dtd"
   xmlns:inkscape="http://www.inkscape.org/namespaces/inkscape"
   version="1"
   viewBox="0 0 48 48"
   enable-background="new 0 0 48 48"
   id="svg2"
   inkscape:version="0.91 r13725"
   sodipodi:docname="lab.svg">
  <metadata
     id="metadata18">
    <rdf:RDF>
      <cc:Work
         rdf:about="">
        <dc:format>image/svg+xml</dc:format>
        <dc:type
           rdf:resource="http://purl.org/dc/dcmitype/StillImage" />
      </cc:Work>
    </rdf:RDF>
  </metadata>
  <defs
     id="defs16" />
  <sodipodi:namedview
     pagecolor="#ffffff"
     bordercolor="#666666"
     borderopacity="1"
     objecttolerance="10"
     gridtolerance="10"
     guidetolerance="10"
     inkscape:pageopacity="0"
     inkscape:pageshadow="2"
     inkscape:window-width="1278"
     inkscape:window-height="717"
     id="namedview14"
     showgrid="false"
     inkscape:zoom="4.9166667"
     inkscape:cx="-20.847458"
     inkscape:cy="24"
     inkscape:window-x="0"
     inkscape:window-y="25"
     inkscape:window-maximized="0"
     inkscape:current-layer="svg2" />
  <path
     d="m 33.19418,13.651204 0,-9.1989292 -18.39786,0 0,9.1989292 -11.2686882,28.746655 c -0.6899197,1.724799 0.5749331,3.449599 2.414719,3.449599 l 36.2207852,0 c 1.839786,0 2.989652,-1.839786 2.414719,-3.449599 L 33.19418,13.651204 Z"
     id="path4"
     inkscape:connector-curvature="0"
     style="fill:#9ccc65" />
  <path
     d="m 33.19418,6.7520071 -18.39786,0 c -1.264852,0 -2.299732,-1.0348795 -2.299732,-2.2997323 l 0,0 c 0,-1.2648529 1.03488,-2.2997324 2.299732,-2.2997324 l 18.39786,0 c 1.264852,0 2.299732,1.0348795 2.299732,2.2997324 l 0,0 c 0,1.2648528 -1.03488,2.2997323 -2.299732,2.2997323 z"
     id="path6"
     inkscape:connector-curvature="0"
     style="fill:#8bc34a" />
  <circle
     style="fill:#00bcd4"
     id="circle8"
     r="2"
     cy="9.6694918"
     cx="20.618643" />
  <circle
     style="fill:#00bcd4"
     id="circle10"
     r="2"
     cy="15.771187"
     cx="27.635593" />
  <circle
     style="fill:#00bcd4"
     id="circle12"
     r="2"
     cy="9.6694918"
     cx="27.923729" />
  <circle
     style="fill:#00bcd4"
     id="circle14"
     r="4"
     cy="23.90678"
     cx="29.415255" />
  <circle
     style="fill:#00bcd4"
     id="circle16"
     r="2"
     cy="41.635593"
     cx="12.48305" />
  <circle
     style="fill:#00bcd4"
     id="circle18"
     r="2"
     cy="41.635593"
     cx="28.483051" />
  <circle
     style="fill:#00bcd4"
     id="circle20"
     r="3"
     cy="41.635593"
     cx="20.483051" />
  <circle
     style="fill:#00bcd4"
     id="circle22"
     r="4"
     cy="41.635593"
     cx="36.483051" />
  <circle
     style="fill:#00bcd4"
     id="circle24"
     r="2"
     cy="34.703388"
     cx="17.974575" />
  <circle
     style="fill:#00bcd4"
     id="circle26"
     r="2"
     cy="34.296612"
     cx="33.618645" />
  <circle
     style="fill:#00bcd4"
     id="circle28"
     r="3"
     cy="25.144068"
     cx="21.330509" />
</svg>
